[gd_scene load_steps=3 format=2]

[ext_resource path="res://KinematicBody2D.gd" type="Script" id=1]
[ext_resource path="res://assets/wilford_idle.png" type="Texture" id=2]

[node name="Player" type="Node2D"]

[node name="KinematicBody2D" type="KinematicBody2D" parent="."]
position = Vector2( 161.225, 89.4152 )
script = ExtResource( 1 )
__meta__ = {
"_edit_group_": true
}
speed = 100

[node name="Sprite" type="Sprite" parent="KinematicBody2D"]
scale = Vector2( 0.25, 0.25 )
texture = ExtResource( 2 )

[node name="CollisionShape2D" type="CollisionShape2D" parent="KinematicBody2D"]

[node name="Camera" type="Camera2D" parent="KinematicBody2D"]
offset = Vector2( 0, -60 )
current = true

